{
    "KPlugin": {
        "Category": "Appearance",
        "Description": "Improve contrast and readability behind semi-transparent windows",
        "EnabledByDefault": true,
        "Id": "contrast",
        "License": "GPL",
        "Name": "Background contrast"
    },
    "org.kde.kwin.effect": {
        "enabledByDefaultMethod": true
    }
}
