{
    "KPlugin": {
        "Category": "Accessibility",
        "Description": "Creates an animation whenever a mouse button is clicked. This is useful for screenrecordings/presentations",
        "EnabledByDefault": false,
        "Id": "mouseclick",
        "License": "GPL",
        "Name": "Mouse Click Animation"
    },
    "X-KDE-ConfigModule": "kwin_mouseclick_config",
    "org.kde.kwin.effect": {
        "video": "https://files.kde.org/plasma/kwin/effect-videos/mouse_click.mp4"
    }
}
